Tarea2_SystemC/sc_tb.vcd
$date
     May 10, 2018       20:26:33
$end

$version
 SystemC 2.3.2-Accellera --- Feb 12 2018 18:40:29
$end

$timescale
     1 ns
$end

$scope module SystemC $end
$var wire    1  aaaaa  clk       $end
$var wire    1  aaaab  rst       $end
$var wire   32  aaaac  d_out [31:0]  $end
$upscope $end
$enddefinitions  $end

$comment
All initial values are dumped below at time 0 sec = 0 timescale units.
$end

$dumpvars
0aaaaa
0aaaab
b0 aaaac
$end

#1
1aaaaa
1aaaab

#2
0aaaaa

#3
1aaaaa

#4
0aaaaa

#5
1aaaaa

#6
0aaaaa

#7
1aaaaa

#8
0aaaaa

#9
1aaaaa

#10
0aaaaa

#11
1aaaaa

#12
0aaaaa

#13
1aaaaa

#14
0aaaaa

#15
1aaaaa

#16
0aaaaa

#17
1aaaaa

#18
0aaaaa

#19
1aaaaa

#20
0aaaaa

#21
1aaaaa
0aaaab

#22
0aaaaa
b1 aaaac

#23
1aaaaa

#24
0aaaaa
b10 aaaac

#25
1aaaaa

#26
0aaaaa
b11 aaaac

#27
1aaaaa

#28
0aaaaa
b100 aaaac

#29
1aaaaa

#30
0aaaaa
b101 aaaac

#31
1aaaaa

#32
0aaaaa
b110 aaaac

#33
1aaaaa

#34
0aaaaa
b111 aaaac

#35
1aaaaa

#36
0aaaaa
b1000 aaaac

#37
1aaaaa

#38
0aaaaa
b1001 aaaac

#39
1aaaaa

#40
0aaaaa
b1010 aaaac

#41
1aaaaa

#42
0aaaaa
b1011 aaaac

#43
1aaaaa

#44
0aaaaa
b1100 aaaac

#45
1aaaaa

#46
0aaaaa
b1101 aaaac

#47
1aaaaa

#48
0aaaaa
b1110 aaaac

#49
1aaaaa

#50
0aaaaa
b1111 aaaac

#51
1aaaaa

#52
0aaaaa
b10000 aaaac

#53
1aaaaa

#54
0aaaaa
b10001 aaaac

#55
1aaaaa

#56
0aaaaa
b10010 aaaac

#57
1aaaaa

#58
0aaaaa
b10011 aaaac

#59
1aaaaa

#60
0aaaaa
b10100 aaaac

#61
1aaaaa

#62
0aaaaa
b10101 aaaac

#63
1aaaaa

#64
0aaaaa
b10110 aaaac

#65
1aaaaa

#66
0aaaaa
b10111 aaaac

#67
1aaaaa

#68
0aaaaa
b11000 aaaac

#69
1aaaaa

#70
0aaaaa
b11001 aaaac

#71
1aaaaa

#72
0aaaaa
b11010 aaaac

#73
1aaaaa

#74
0aaaaa
b11011 aaaac

#75
1aaaaa

#76
0aaaaa
b11100 aaaac

#77
1aaaaa

#78
0aaaaa
b11101 aaaac

#79
1aaaaa

#80
0aaaaa
b11110 aaaac

#81
1aaaaa

#82
0aaaaa
b11111 aaaac

#83
1aaaaa

#84
0aaaaa
b100000 aaaac

#85
1aaaaa

#86
0aaaaa
b100001 aaaac

#87
1aaaaa

#88
0aaaaa
b100010 aaaac

#89
1aaaaa

#90
0aaaaa
b100011 aaaac

#91
1aaaaa

#92
0aaaaa
b100100 aaaac

#93
1aaaaa

#94
0aaaaa
b100101 aaaac

#95
1aaaaa

#96
0aaaaa
b100110 aaaac

#97
1aaaaa

#98
0aaaaa
b100111 aaaac

#99
1aaaaa

#100
0aaaaa
b101000 aaaac

#101
1aaaaa

#102
0aaaaa
b101001 aaaac

#103
1aaaaa

#104
0aaaaa
b101010 aaaac

#105
1aaaaa

#106
0aaaaa
b101011 aaaac

#107
1aaaaa

#108
0aaaaa
b101100 aaaac

#109
1aaaaa

#110
0aaaaa
b101101 aaaac

#111
1aaaaa

#112
0aaaaa
b101110 aaaac

#113
1aaaaa

#114
0aaaaa
b101111 aaaac

#115
1aaaaa

#116
0aaaaa
b110000 aaaac

#117
1aaaaa

#118
0aaaaa
b110001 aaaac

#119
1aaaaa

#120
0aaaaa
b110010 aaaac

#121
1aaaaa

#122
0aaaaa
b110011 aaaac

#123
1aaaaa

#124
0aaaaa
b110100 aaaac

#125
1aaaaa

#126
0aaaaa
b110101 aaaac

#127
1aaaaa

#128
0aaaaa
b110110 aaaac

#129
1aaaaa

#130
0aaaaa
b110111 aaaac

#131
1aaaaa

#132
0aaaaa
b111000 aaaac

#133
1aaaaa

#134
0aaaaa
b111001 aaaac

#135
1aaaaa

#136
0aaaaa
b111010 aaaac

#137
1aaaaa

#138
0aaaaa
b111011 aaaac

#139
1aaaaa

#140
0aaaaa
b111100 aaaac

#141
1aaaaa

#142
0aaaaa
b111101 aaaac

#143
1aaaaa

#144
0aaaaa
b111110 aaaac

#145
1aaaaa

#146
0aaaaa
b111111 aaaac

#147
1aaaaa

#148
0aaaaa
b1000000 aaaac

#149
1aaaaa

#150
0aaaaa
b1000001 aaaac

#151
1aaaaa

#152
0aaaaa
b1000010 aaaac

#153
1aaaaa

#154
0aaaaa
b1000011 aaaac

#155
1aaaaa

#156
0aaaaa
b1000100 aaaac

#157
1aaaaa

#158
0aaaaa
b1000101 aaaac

#159
1aaaaa

#160
0aaaaa
b1000110 aaaac

#161
1aaaaa

#162
0aaaaa
b1000111 aaaac

#163
1aaaaa

#164
0aaaaa
b1001000 aaaac

#165
1aaaaa

#166
0aaaaa
b1001001 aaaac

#167
1aaaaa

#168
0aaaaa
b1001010 aaaac

#169
1aaaaa

#170
0aaaaa
b1001011 aaaac

#171
1aaaaa

#172
0aaaaa
b1001100 aaaac

#173
1aaaaa

#174
0aaaaa
b1001101 aaaac

#175
1aaaaa

#176
0aaaaa
b1001110 aaaac

#177
1aaaaa

#178
0aaaaa
b1001111 aaaac

#179
1aaaaa

#180
0aaaaa
b1010000 aaaac

#181
1aaaaa

#182
0aaaaa
b1010001 aaaac

#183
1aaaaa

#184
0aaaaa
b1010010 aaaac

#185
1aaaaa

#186
0aaaaa
b1010011 aaaac

#187
1aaaaa

#188
0aaaaa
b1010100 aaaac

#189
1aaaaa

#190
0aaaaa
b1010101 aaaac

#191
1aaaaa

#192
0aaaaa
b1010110 aaaac

#193
1aaaaa

#194
0aaaaa
b1010111 aaaac

#195
1aaaaa

#196
0aaaaa
b1011000 aaaac

#197
1aaaaa

#198
0aaaaa
b1011001 aaaac

#199
1aaaaa

#200
0aaaaa
b1011010 aaaac

#201
1aaaaa

#202
0aaaaa
b1011011 aaaac

#203
1aaaaa

#204
0aaaaa
b1011100 aaaac

#205
1aaaaa

#206
0aaaaa
b1011101 aaaac

#207
1aaaaa

#208
0aaaaa
b1011110 aaaac

#209
1aaaaa

#210
0aaaaa
b1011111 aaaac

#211
1aaaaa

#212
0aaaaa
b1100000 aaaac

#213
1aaaaa

#214
0aaaaa
b1100001 aaaac

#215
1aaaaa

#216
0aaaaa
b1100010 aaaac

#217
1aaaaa

#218
0aaaaa
b1100011 aaaac

#219
1aaaaa

#220
0aaaaa
b1100100 aaaac

#221
1aaaaa

#222
0aaaaa
b1100101 aaaac

#223
1aaaaa

#224
0aaaaa
b1100110 aaaac

#225
1aaaaa

#226
0aaaaa
b1100111 aaaac

#227
1aaaaa

#228
0aaaaa
b1101000 aaaac

#229
1aaaaa

#230
0aaaaa
b1101001 aaaac

#231
1aaaaa

#232
0aaaaa
b1101010 aaaac

#233
1aaaaa

#234
0aaaaa
b1101011 aaaac

#235
1aaaaa

#236
0aaaaa
b1101100 aaaac

#237
1aaaaa

#238
0aaaaa
b1101101 aaaac

#239
1aaaaa

#240
0aaaaa
b1101110 aaaac

#241
1aaaaa

#242
0aaaaa
b1101111 aaaac

#243
1aaaaa

#244
0aaaaa
b1110000 aaaac

#245
1aaaaa

#246
0aaaaa
b1110001 aaaac

#247
1aaaaa

#248
0aaaaa
b1110010 aaaac

#249
1aaaaa

#250
0aaaaa
b1110011 aaaac

#251
1aaaaa

#252
0aaaaa
b1110100 aaaac

#253
1aaaaa

#254
0aaaaa
b1110101 aaaac

#255
1aaaaa

#256
0aaaaa
b1110110 aaaac

#257
1aaaaa

#258
0aaaaa
b1110111 aaaac

#259
1aaaaa

#260
0aaaaa
b1111000 aaaac

#261
1aaaaa
1aaaab

